{
   "REGION":["BOUCLE DU MOUHOUN","CASCADES","CENTRE","CENTRE-EST","CENTRE-NORD","CENTRE-OUEST","CENTRE-SUD","EST","HAUTS-BASSINS","NORD","PLATEAU CENTRAL","SAHEL","SUD-OUEST","BURKINA FASO"],
   "Taux":["81,5","94,6","86,7","97,5","92,8","83,8","91,9","93,8","80,9","81,5","90,9","87,0","87,4","88,8"]
}