[
  ["BOUCLE DU MOUHOUN",77.9  ],
  ["CASCADES",85.7  ],
  ["CENTRE",95.2  ],
  ["CENTRE-EST",84.9  ],
  ["CENTRE-NORD",85.1  ],
  ["CENTRE-OUEST",88.5  ],
  ["CENTRE-SUD",92.4  ],
  ["EST",92.4  ],
  ["HAUTS-BASSINS",87.9  ],
  ["NORD",89.1  ],
  ["PLATEAU CENTRAL",83.7  ],
  ["SAHEL",86.1  ],
  ["SUD-OUEST",100  ],
  ["BURKINA FASO",87.7  ]
]