[
 {
   "REGION": "BOUCLE DU MOUHOUN",
   "Taux": 77.9
 },
 {
   "REGION": "CASCADES",
   "Taux": 85.7
 },
 {
   "REGION": "CENTRE",
   "Taux": 95.2
 },
 {
   "REGION": "CENTRE-EST",
   "Taux": 84.9
 },
 {
   "REGION": "CENTRE-NORD",
   "Taux": 85.1
 },
 {
   "REGION": "CENTRE-OUEST",
   "Taux": 88.5
 },
 {
   "REGION": "CENTRE-SUD",
   "Taux": 92.4
 },
 {
   "REGION": "EST",
   "Taux": 92.4
 },
 {
   "REGION": "HAUTS-BASSINS",
   "Taux": 87.9
 },
 {
   "REGION": "NORD",
   "Taux": 89.1
 },
 {
   "REGION": "PLATEAU CENTRAL",
   "Taux": 83.7
 },
 {
   "REGION": "SAHEL",
   "Taux": 86.1
 },
 {
   "REGION": "SUD-OUEST",
   "Taux": 100
 },
 {
   "REGION": "BURKINA FASO",
   "Taux": 87.7
 }
]